<?xml version="1.0" encoding="utf-8"?>
<!-- Generator: Adobe Illustrator 24.1.2, SVG Export Plug-In . SVG Version: 6.00 Build 0)  -->
<svg  width="30" height="30" version="1.1" id="Слой_1" xmlns="http://www.w3.org/2000/svg" xmlns:xlink="http://www.w3.org/1999/xlink" x="0px" y="0px"
	 viewBox="0 0 512 512" style="enable-background:new 0 0 512 512;" xml:space="preserve">
<style type="text/css">
	.st0{fill:#000;}
</style>
<g id="_1">
	<path class="st0" d="M291.5,449.9c-5.7,0-11-3.3-13.5-8.4l-70.5-144.9L62.6,226.1c-7.4-3.6-10.5-12.6-6.9-20.1
		c1.6-3.3,4.5-6,7.9-7.4L435.5,49.1c7.7-3.1,16.4,0.6,19.5,8.3c1.5,3.6,1.5,7.6,0,11.2L305.4,440.5c-2.2,5.5-7.5,9.2-13.4,9.4
		L291.5,449.9z M106.1,213.9l119.2,58c3,1.5,5.5,3.9,6.9,6.9l58,119.2L414,90L106.1,213.9z"/>
	<path class="st0" d="M218.7,300.4c-8.3,0-15-6.7-15-15c0-4,1.6-7.8,4.4-10.6L430.5,52.4c5.9-5.9,15.4-5.9,21.2,0s5.9,15.4,0,21.2
		l0,0L229.3,296C226.5,298.8,222.7,300.4,218.7,300.4z"/>
</g>
</svg>
